CPT1 Data
…
measure <- Density%>%
  count(measure)
measure

## # A tibble: 22 x 2
##    measure                     n
##    <chr>                   <int>
##  1 % in site                   1
##  2 average individuals/m^2     7
##  3 average shrub/area          3
##  4 individuals/50m radius      2
##  5 individuals/m^2             5
##  6 individuals/plot           52
##  7 mean shrubs/ha              1
##  8 no/10m^2                    4
##  9 no/25m^2                   16
## 10 no/ha^2                     4
## # ... with 12 more rows
…
